[0525/114105.105:ERROR:process_reader_win.cc(151)] SuspendThread: Access is denied. (0x5)
[0525/114105.107:ERROR:process_reader_win.cc(151)] SuspendThread: Access is denied. (0x5)
[0525/114105.108:ERROR:process_reader_win.cc(151)] SuspendThread: Access is denied. (0x5)
[0525/114105.108:ERROR:process_reader_win.cc(123)] NtOpenThread: {Access Denied} A process has requested access to an object, but has not been granted those access rights. (0xc0000022)
[0525/114105.119:ERROR:exception_snapshot_win.cc(98)] thread ID 1836 not found in process
[0531/155941.818:ERROR:process_reader_win.cc(123)] NtOpenThread: {Access Denied} A process has requested access to an object, but has not been granted those access rights. (0xc0000022)
[0531/155941.891:ERROR:exception_snapshot_win.cc(98)] thread ID 17444 not found in process
[0531/160027.109:ERROR:process_reader_win.cc(123)] NtOpenThread: {Access Denied} A process has requested access to an object, but has not been granted those access rights. (0xc0000022)
[0531/160027.111:ERROR:exception_snapshot_win.cc(98)] thread ID 7140 not found in process
[0531/160052.348:ERROR:process_reader_win.cc(123)] NtOpenThread: {Access Denied} A process has requested access to an object, but has not been granted those access rights. (0xc0000022)
[0531/160052.350:ERROR:exception_snapshot_win.cc(98)] thread ID 8552 not found in process
[0602/195652.458:ERROR:process_reader_win.cc(123)] NtOpenThread: {Access Denied} A process has requested access to an object, but has not been granted those access rights. (0xc0000022)
[0602/195652.477:ERROR:exception_snapshot_win.cc(98)] thread ID 12640 not found in process
[0602/195652.528:ERROR:process_reader_win.cc(123)] NtOpenThread: {Access Denied} A process has requested access to an object, but has not been granted those access rights. (0xc0000022)
[0602/195652.530:ERROR:exception_snapshot_win.cc(98)] thread ID 8728 not found in process
